{
  "errors": [
    {
      "message": "string"
    }
  ],
  "metadata": {
    "time_taken": 0,
    "resource_count": 0
  },
  "resources": {
    "id": "3fa85f64-5717-4562-b3fc-2c963f66afa6",
    "username": "boomhaur",
    "email": "yeahman@texas.gov",
    "password": "dangol",
    "admin": false,
    "read_only": false,
    "max_tlp": "clear",
    "disabled": false
  }
}
