{
  "errors": [
    {
      "message": "string"
    }
  ],
  "metadata": {
    "time_taken": 0,
    "resource_count": 0
  },
  "resources": {
    "id": "3fa85f64-5717-4562-b3fc-2c963f66afa6",
    "action": "block",
    "observable": {
      "value": "192.0.2.50",
      "type": "ipv4addr"
    },
    "confidence": 0,
    "source": "SSH honeypot hits",
    "tlp": "clear",
    "valid_until": "2025-12-25T12:30:00+04:00",
    "comment": ""
  }
}
